{
    "code": 0,
    "tpl_data": {
        "items": [
            {
                "id": 145817,
                "number": 4046290587203,
                "subject_name": "出国留学-留学考试-SAT",
                "support_online": "0",
                "exp_price": "¥300-¥500",
                "vip_exclusive_time": 1757,
                "info": "樊先生，想出国留学，希望老师有教学经验，沟通能力强。过完年可以学习，具体时间和老师协商。地址在广东深圳龙岗区范围都可以。线下学习。",
                "create_time": "2017-01-20 09:51:20",
                "page_view": "0",
                "display_status": {
                    "name": "我要报名",
                    "color": "#37a4f5"
                },
                "allow_action": {
                    "action": "join",
                    "name": "立即报名"
                },
                "address": "深圳-龙岗区",
                "sex": "2",
                "status": "1",
                "verify_status": "1",
                "user": {
                    "avatar_url_mobile": "https://img.genshuixue.com/30563_r6g3yf28.jpeg",
                    "display_name2": "学生8314"
                },
                "user_role": "2",
                "joined_teachers": []
            },
            {
                "id": 145818,
                "number": 4046291355203,
                "subject_name": "小升初-语文-语文",
                "support_online": "0",
                "exp_price": "¥100-¥200",
                "vip_exclusive_time": 1701,
                "info": "6年级学生，学习语文，巩华小学，目前语文成绩95，阅读理解跟作文比较薄弱，希望老师有丰富的教学经验，针对小升初有经验，线下一对一授课，学习时间：春节初八以后 地址：北京昌平区顺沙路",
                "create_time": "2017-01-20 09:50:24",
                "page_view": "0",
                "display_status": {
                    "name": "我要报名",
                    "color": "#37a4f5"
                },
                "allow_action": {
                    "action": "join",
                    "name": "立即报名"
                },
                "address": "北京-昌平区-顺沙路",
                "sex": "2",
                "status": "1",
                "verify_status": "1",
                "user": {
                    "avatar_url_mobile": "https://img.genshuixue.com/30573_rq4bmwug.jpeg",
                    "display_name2": "学生3160"
                },
                "user_role": "2",
                "joined_teachers": []
            },
            {
                "id": 145821,
                "number": 4046290587603,
                "subject_name": "艺术-声乐-民族",
                "support_online": "0",
                "exp_price": "双方协商",
                "vip_exclusive_time": 1585,
                "info": "8岁男孩，出于兴趣爱好，学习民族，零基础，希望是男老师，教学经验丰富，5年以上教龄，线下授课，时间：周末，具体时间与老师协商，地址：江苏南京建邺区奥体中心附近",
                "create_time": "2017-01-20 09:48:28",
                "page_view": "0",
                "display_status": {
                    "name": "我要报名",
                    "color": "#37a4f5"
                },
                "allow_action": {
                    "action": "join",
                    "name": "立即报名"
                },
                "address": "南京-建邺区-奥体中心附近",
                "sex": "2",
                "status": "1",
                "verify_status": "1",
                "user": {
                    "avatar_url_mobile": "https://img.genshuixue.com/30536_8w8340jy.jpeg",
                    "display_name2": "学生8444"
                },
                "user_role": "2",
                "joined_teachers": []
            },
            {
                "id": 145816,
                "number": 4046290536003,
                "subject_name": "艺术-器乐-小提琴",
                "support_online": "0",
                "exp_price": "双方协商",
                "vip_exclusive_time": 1400,
                "info": "8岁男孩，出于兴趣爱好，学习小提琴，零基础，希望老师教学经验丰富，5年以上教龄，线下授课，时间：周末，具体时间与老师协商，地址：江苏南京建邺区奥体中心附近",
                "create_time": "2017-01-20 09:45:23",
                "page_view": "0",
                "display_status": {
                    "name": "我要报名",
                    "color": "#37a4f5"
                },
                "allow_action": {
                    "action": "join",
                    "name": "立即报名"
                },
                "address": "南京-建邺区-奥体中心附近",
                "sex": "2",
                "status": "1",
                "verify_status": "1",
                "user": {
                    "avatar_url_mobile": "https://img.genshuixue.com/30536_8w8340jy.jpeg",
                    "display_name2": "学生8444"
                },
                "user_role": "2",
                "joined_teachers": []
            },
            {
                "id": 145814,
                "number": 3992604264403,
                "subject_name": "高中-化学-高一",
                "support_online": "0",
                "exp_price": "¥100以内",
                "vip_exclusive_time": 379,
                "info": "高一女孩，学习化学，目的是提高成绩，分数60分左右，希望老师教学经验丰富，时间：寒假期间，具体时间与老师协商，地址：山东菏泽牡丹区或者开发区附近",
                "create_time": "2017-01-20 09:28:22",
                "page_view": "3",
                "display_status": {
                    "name": "我要报名",
                    "color": "#37a4f5"
                },
                "allow_action": {
                    "action": "join",
                    "name": "立即报名"
                },
                "address": "菏泽-牡丹区-或者开发区附近",
                "sex": "2",
                "status": "1",
                "verify_status": "1",
                "user": {
                    "avatar_url_mobile": "https://img.genshuixue.com/30552_euxby5pl.jpeg",
                    "display_name2": "学生0815"
                },
                "user_role": "2",
                "joined_teachers": []
            },
            {
                "id": 145807,
                "number": 4046291202003,
                "subject_name": "高中-物理-高一",
                "support_online": "0",
                "exp_price": "¥100以内",
                "vip_exclusive_time": 153,
                "info": "高一女孩，学习物理，目的是提高成绩，分数60分左右，希望老师教学经验丰富，时间：寒假期间，具体时间与老师协商，地址：山东菏泽牡丹区或者开发区附近",
                "create_time": "2017-01-20 09:24:36",
                "page_view": "1",
                "display_status": {
                    "name": "我要报名",
                    "color": "#37a4f5"
                },
                "allow_action": {
                    "action": "join",
                    "name": "立即报名"
                },
                "address": "菏泽-牡丹区-或者开发区附近",
                "sex": "2",
                "status": "1",
                "verify_status": "1",
                "user": {
                    "avatar_url_mobile": "https://img.genshuixue.com/30552_euxby5pl.jpeg",
                    "display_name2": "学生0815"
                },
                "user_role": "2",
                "joined_teachers": []
            },
            {
                "id": 145809,
                "number": 3992603496003,
                "subject_name": "艺术-舞蹈-肚皮舞",
                "support_online": "1",
                "exp_price": "¥100以内",
                "vip_exclusive_time": -557,
                "info": "30多岁女士，出于兴趣爱好，学习肚皮舞，已经学了很多年，希望老师专业，年龄35岁以下，线上授课，时间：与老师协商，地址：江西赣州市辖区附近",
                "create_time": "2017-01-20 09:12:46",
                "page_view": "6",
                "display_status": {
                    "name": "我要报名",
                    "color": "#37a4f5"
                },
                "allow_action": {
                    "action": "join",
                    "name": "立即报名"
                },
                "address": "赣州-市辖区",
                "sex": "2",
                "status": "1",
                "verify_status": "1",
                "user": {
                    "avatar_url_mobile": "https://img.genshuixue.com/27758865_d19cfgq9.jpeg",
                    "display_name2": "严严"
                },
                "user_role": "2",
                "joined_teachers": [
                    {
                        "avatar_url": "https://imgs.genshuixue.com/25189372_17n8ptjm.jpg"
                    }
                ]
            },
            {
                "id": 145756,
                "number": 3187298715603,
                "subject_name": "中考-物理-物理",
                "support_online": "0",
                "exp_price": "¥100-¥200",
                "vip_exclusive_time": -46577,
                "info": "学生初三，想找个老师或者小班补习下物理，之前的成绩中等，需要提高。地址：武汉市硚口区宗关站附近十七中学。时间：双方协商。希望老师经验丰富。",
                "create_time": "2017-01-19 20:25:46",
                "page_view": "98",
                "display_status": {
                    "name": "我要报名",
                    "color": "#37a4f5"
                },
                "allow_action": {
                    "action": "join",
                    "name": "立即报名"
                },
                "address": "武汉-硚口-宗关站附近十七中学",
                "sex": "2",
                "status": "1",
                "verify_status": "1",
                "user": {
                    "avatar_url_mobile": "https://img.genshuixue.com/30551_j1zyehk1.jpeg",
                    "display_name2": "学生6201"
                },
                "user_role": "2",
                "joined_teachers": [
                    {
                        "avatar_url": "https://imgs.genshuixue.com/headpic_man_04.jpg"
                    },
                    {
                        "avatar_url": "https://imgs.genshuixue.com/3279237_6hhl6yjv.jpeg"
                    }
                ]
            },
            {
                "id": 145747,
                "number": 3133612494403,
                "subject_name": "出国留学-留学考试-雅思",
                "support_online": "0",
                "exp_price": "¥100-¥200",
                "vip_exclusive_time": -49465,
                "info": "20岁男生，学习雅思，目的是通过学校的考试，目前分数是4.5分，时间：1月20 日至1 月26日，具体时间与老师协商，希望老师雅思考试分数在7.5分以上，教学经验丰富，监督以及教授一些学习方法，线下授课，地址：广东广州增城区新塘镇附近",
                "create_time": "2017-01-19 19:37:38",
                "page_view": "103",
                "display_status": {
                    "name": "我要报名",
                    "color": "#37a4f5"
                },
                "allow_action": {
                    "action": "join",
                    "name": "立即报名"
                },
                "address": "广州-增城区-新塘镇",
                "sex": "2",
                "status": "1",
                "verify_status": "1",
                "user": {
                    "avatar_url_mobile": "https://img.genshuixue.com/27872870_0819t2y4.jpeg",
                    "display_name2": "Chaires"
                },
                "user_role": "2",
                "joined_teachers": [
                    {
                        "avatar_url": "https://imgs.genshuixue.com/20094629_xlvtrol2.jpeg"
                    },
                    {
                        "avatar_url": "https://imgs.genshuixue.com/1500372_733jzchk.jpeg"
                    },
                    {
                        "avatar_url": "https://imgs.genshuixue.com/8935509_eooup415.jpeg"
                    }
                ]
            },
            {
                "id": 145738,
                "number": 3187299329603,
                "subject_name": "职业技能-设计制作-室内设计",
                "support_online": "1",
                "exp_price": "¥200-¥300",
                "vip_exclusive_time": -50799,
                "info": "29岁男士，出于兴趣爱好以及自己有房子需要装修，学习室内设计，零基础，希望老师实操经验较多，时间：晚上8点，线上授课或者线下授课，地址：北京海淀区五道口附近",
                "create_time": "2017-01-19 19:15:24",
                "page_view": "47",
                "display_status": {
                    "name": "我要报名",
                    "color": "#37a4f5"
                },
                "allow_action": {
                    "action": "join",
                    "name": "立即报名"
                },
                "address": "北京-海淀区-五道口附近",
                "sex": "2",
                "status": "1",
                "verify_status": "1",
                "user": {
                    "avatar_url_mobile": "https://img.genshuixue.com/30512_jn9spgww.jpeg",
                    "display_name2": "学生3648"
                },
                "user_role": "2",
                "joined_teachers": [
                    {
                        "avatar_url": "https://img.genshuixue.com/25342536_flfjwg2j.jpeg"
                    },
                    {
                        "avatar_url": "https://img.genshuixue.com/6571411_e1r27wb7.jpeg"
                    }
                ]
            },
            {
                "id": 145454,
                "number": 3615116699603,
                "subject_name": "体育-运动-篮球",
                "support_online": "0",
                "exp_price": "¥100-¥200",
                "vip_exclusive_time": -52066,
                "info": "17岁高二男生，作为兴趣爱好学习，有基础；希望老经验丰富有耐心，专业性强；学习时间寒假期间早上九点后协商；学生上门，需要老师有场地；学生在昆明盘龙区司家营俊发城附近",
                "create_time": "2017-01-19 18:54:17",
                "page_view": "11",
                "display_status": {
                    "name": "我要报名",
                    "color": "#37a4f5"
                },
                "allow_action": {
                    "action": "join",
                    "name": "立即报名"
                },
                "address": "昆明-盘龙区-司家营俊发城附近",
                "sex": "2",
                "status": "1",
                "verify_status": "1",
                "user": {
                    "avatar_url_mobile": "https://img.genshuixue.com/30563_r6g3yf28.jpeg",
                    "display_name2": "学生4728"
                },
                "user_role": "2",
                "joined_teachers": []
            },
            {
                "id": 145741,
                "number": 3187298562003,
                "subject_name": "艺术-器乐-唢呐",
                "support_online": "0",
                "exp_price": "¥100以内",
                "vip_exclusive_time": -52199,
                "info": "27岁男士，零基础，兴趣爱好培养。希望老师有一定的教学经验，认真负责，上课时间不固定，可以和老师协商。地址：山东德州临邑县（县城老师都可以过去）",
                "create_time": "2017-01-19 18:52:04",
                "page_view": "2",
                "display_status": {
                    "name": "我要报名",
                    "color": "#37a4f5"
                },
                "allow_action": {
                    "action": "join",
                    "name": "立即报名"
                },
                "address": "德州-临邑县-县城老师",
                "sex": "2",
                "status": "1",
                "verify_status": "1",
                "user": {
                    "avatar_url_mobile": "https://imgs.genshuixue.com/30541_myh7ocim.jpeg",
                    "display_name2": "学生5109"
                },
                "user_role": "2",
                "joined_teachers": []
            },
            {
                "id": 145739,
                "number": 3187299380803,
                "subject_name": "艺术-媒体艺术-播音主持",
                "support_online": "0",
                "exp_price": "双方协商",
                "vip_exclusive_time": -54957,
                "info": "两至三个高三学生，需要参加重庆大学播音主持考试，已考过吉林大学初试；要求老师经验丰富有耐心，专业性强；学习时间比较急在1月20-22日；老师上门",
                "create_time": "2017-01-19 18:06:07",
                "page_view": "28",
                "display_status": {
                    "name": "我要报名",
                    "color": "#37a4f5"
                },
                "allow_action": {
                    "action": "join",
                    "name": "立即报名"
                },
                "address": "沈阳-沈北新区-辽宁大学北校区附近",
                "sex": "2",
                "status": "1",
                "verify_status": "1",
                "user": {
                    "avatar_url_mobile": "https://img.genshuixue.com/30530_8bzjq1xy.jpeg",
                    "display_name2": "学生9022"
                },
                "user_role": "2",
                "joined_teachers": [
                    {
                        "avatar_url": "https://imgs.genshuixue.com/12884775_pdwbapp7.jpeg"
                    },
                    {
                        "avatar_url": "https://imgs.genshuixue.com/10286112_jnnaoozy.jpeg"
                    }
                ]
            },
            {
                "id": 145730,
                "number": 3133612238403,
                "subject_name": "初中-科学-初一",
                "support_online": "0",
                "exp_price": "¥300-¥500",
                "vip_exclusive_time": -57226,
                "info": "初一女生，在国际学校学习英文版教材，前期成绩中下等，需要老师辅助提升；要求女性老师熟悉国际学校科学考试体系，经验丰富有耐心，专业性强，有好的学习方法；学习时间跟老师协商；线下学习在北京朝阳公园桥附近",
                "create_time": "2017-01-19 17:28:18",
                "page_view": "28",
                "display_status": {
                    "name": "我要报名",
                    "color": "#37a4f5"
                },
                "allow_action": {
                    "action": "join",
                    "name": "立即报名"
                },
                "address": "北京-朝阳区-朝阳公园桥附近",
                "sex": "2",
                "status": "1",
                "verify_status": "1",
                "user": {
                    "avatar_url_mobile": "https://img.genshuixue.com/30553_m11hgcw1.jpeg",
                    "display_name2": "学生1308"
                },
                "user_role": "2",
                "joined_teachers": []
            },
            {
                "id": 145729,
                "number": 3133611470403,
                "subject_name": "体育-运动-篮球",
                "support_online": "0",
                "exp_price": "¥100-¥200",
                "vip_exclusive_time": -58027,
                "info": "17岁高二男生，作为兴趣爱好学习，有基础；希望老经验丰富有耐心，专业性强；学习时间：寒假期间早上九点后，具体协商；学生上门，需要老师有场地；地址：昆明盘龙区司家营俊发城附近",
                "create_time": "2017-01-19 17:14:57",
                "page_view": "24",
                "display_status": {
                    "name": "我要报名",
                    "color": "#37a4f5"
                },
                "allow_action": {
                    "action": "join",
                    "name": "立即报名"
                },
                "address": "昆明-盘龙区-司家营俊发城附近",
                "sex": "2",
                "status": "1",
                "verify_status": "1",
                "user": {
                    "avatar_url_mobile": "https://img.genshuixue.com/30563_r6g3yf28.jpeg",
                    "display_name2": "学生4728"
                },
                "user_role": "2",
                "joined_teachers": []
            },
            {
                "id": 145727,
                "number": 3616794677203,
                "subject_name": "初中-数学-初三",
                "support_online": "0",
                "exp_price": "¥100以内",
                "vip_exclusive_time": -59869,
                "info": "初三男孩，平时考试在80分左右 ；希望老师有一定的教学经验，认真负责，有好的学习方法，专业性强；能帮助孩子在假期尽快提高成绩，一对一线下授课。地址：陕西咸阳渭城区中心广场",
                "create_time": "2017-01-19 16:44:15",
                "page_view": "87",
                "display_status": {
                    "name": "我要报名",
                    "color": "#37a4f5"
                },
                "allow_action": {
                    "action": "join",
                    "name": "立即报名"
                },
                "address": "咸阳-渭城区-中心广场",
                "sex": "2",
                "status": "1",
                "verify_status": "1",
                "user": {
                    "avatar_url_mobile": "https://img.genshuixue.com/30552_euxby5pl.jpeg",
                    "display_name2": "学生7157"
                },
                "user_role": "2",
                "joined_teachers": [
                    {
                        "avatar_url": "https://imgs.genshuixue.com/7250870_uo1y8dba.jpeg"
                    },
                    {
                        "avatar_url": "https://img.genshuixue.com/1244695_01gec3cm.jpeg"
                    },
                    {
                        "avatar_url": "https://imgs.genshuixue.com/22272963_x4xure7p.jpeg"
                    },
                    {
                        "avatar_url": "https://imgs.genshuixue.com/8252442_ucp61mvz.jpeg"
                    }
                ]
            },
            {
                "id": 145724,
                "number": 3616793806803,
                "subject_name": "兴趣-魔方-魔方",
                "support_online": "1",
                "exp_price": "双方协商",
                "vip_exclusive_time": -59955,
                "info": "想学习下魔方，最近比较感兴趣，线下，内蒙古，希望老师能指导下",
                "create_time": "2017-01-19 16:42:49",
                "page_view": "155",
                "display_status": {
                    "name": "我要报名",
                    "color": "#37a4f5"
                },
                "allow_action": {
                    "action": "join",
                    "name": "立即报名"
                },
                "address": "乌海-市辖区",
                "sex": "0",
                "status": "1",
                "verify_status": "1",
                "user": {
                    "avatar_url_mobile": "https://img.genshuixue.com/26246039_4u3wme7n.jpeg",
                    "display_name2": "烟火"
                },
                "user_role": "0",
                "joined_teachers": [
                    {
                        "avatar_url": "https://img.genshuixue.com/25032712_zkdatnjy.jpeg"
                    },
                    {
                        "avatar_url": "https://imgs.genshuixue.com/14369849_77hsyknb.jpeg"
                    },
                    {
                        "avatar_url": "https://imgs.genshuixue.com/15953557_vdm3wzom.jpeg"
                    }
                ]
            },
            {
                "id": 145721,
                "number": 3616793857603,
                "subject_name": "公务员-地方公务员-面试",
                "support_online": "1",
                "exp_price": "¥200-¥300",
                "vip_exclusive_time": -61356,
                "info": "25岁男士，学习面试课程，目的是通过地方公务员的考试，之前学习过一点，希望老师教学经验丰富，时间：晚上8点-10点，线上授课，地址：湖南邵阳市辖区附近",
                "create_time": "2017-01-19 16:19:28",
                "page_view": "52",
                "display_status": {
                    "name": "我要报名",
                    "color": "#37a4f5"
                },
                "allow_action": {
                    "action": "join",
                    "name": "立即报名"
                },
                "address": "邵阳-市辖区",
                "sex": "2",
                "status": "1",
                "verify_status": "1",
                "user": {
                    "avatar_url_mobile": "https://imgs.genshuixue.com/27856813_dxbsittk.jpeg",
                    "display_name2": "开拓大时代"
                },
                "user_role": "2",
                "joined_teachers": [
                    {
                        "avatar_url": "https://imgs.genshuixue.com/headpic_man_04.jpg"
                    },
                    {
                        "avatar_url": "https://imgs.genshuixue.com/13071542_3a78vxux.jpeg"
                    },
                    {
                        "avatar_url": "https://imgs.genshuixue.com/10719839_xm7w50oe.jpeg"
                    },
                    {
                        "avatar_url": "https://img.genshuixue.com/13881933_db2xymw3.jpeg"
                    }
                ]
            },
            {
                "id": 145709,
                "number": 3616793653203,
                "subject_name": "艺术-器乐-马林巴",
                "support_online": "0",
                "exp_price": "¥100-¥200",
                "vip_exclusive_time": -61820,
                "info": "8岁男孩，出于兴趣爱好，学习马林巴，有一点基础，希望老师耐心，有责任心，时间：与老师协商，线下授课，地址：北京市丰台区或者房山区长阳附近",
                "create_time": "2017-01-19 16:11:44",
                "page_view": "5",
                "display_status": {
                    "name": "我要报名",
                    "color": "#37a4f5"
                },
                "allow_action": {
                    "action": "join",
                    "name": "立即报名"
                },
                "address": "北京-丰台区",
                "sex": "2",
                "status": "1",
                "verify_status": "1",
                "user": {
                    "avatar_url_mobile": "https://img.genshuixue.com/30558_18lg9zd8.jpeg",
                    "display_name2": "学生8685"
                },
                "user_role": "2",
                "joined_teachers": []
            },
            {
                "id": 145720,
                "number": 3616793806403,
                "subject_name": "艺术-器乐-巴乌",
                "support_online": "0",
                "exp_price": "¥100-¥200",
                "vip_exclusive_time": -62125,
                "info": "成年女士想趁寒假期间学习一下巴乌，最好有视频教学，希望线下授课，地点在新疆维吾尔自治区  乌鲁木齐市中山路479号  人民政府办公厅杜鹃",
                "create_time": "2017-01-19 16:06:39",
                "page_view": "140",
                "display_status": {
                    "name": "我要报名",
                    "color": "#37a4f5"
                },
                "allow_action": {
                    "action": "join",
                    "name": "立即报名"
                },
                "address": "乌鲁木齐-沙依巴克区-中山路附近",
                "sex": "0",
                "status": "1",
                "verify_status": "1",
                "user": {
                    "avatar_url_mobile": "https://img.genshuixue.com/30527_gfzuxphk.jpeg",
                    "display_name2": "王倩倩"
                },
                "user_role": "2",
                "joined_teachers": [
                    {
                        "avatar_url": "https://imgs.genshuixue.com/3618980_t93qq75p.jpeg"
                    },
                    {
                        "avatar_url": "https://imgs.genshuixue.com/5731695_9lhoes7a.jpeg"
                    }
                ]
            }
        ],
        "teacher": {
            "is_valid": 2
        },
        "pager": {
            "has_more": true,
            "next_page": 2,
            "current_page": 1,
            "total": 7224
        }
    },
    "render": "/v2/resources/page/studentRoom/teacher/room/index"
}