{
    "code": 0,
    "msg": "succ",
    "tpl_data": {
        "if_login": true,
        "teacher_info": {
            "home_url": "http://m.genshuixue.com/chaochang",
            "avatar_url": "https://img.genshuixue.com/23520494_5d6kwxyz.jpeg",
            "display_name": "孔仲尼",
            "comment_no": 1953,
            "comment_link": "http://beta-m.genshuixue.com/chaochang?tab=comment",
            "if_on_list": true,
            "vip_level": null,
            "rank": 1
        },
        "teacher_list": [
            {
                "home_url": "http://m.genshuixue.com/chaochang",
                "avatar_url": "https://img.genshuixue.com/23520494_5d6kwxyz.jpeg",
                "display_name": "孔仲尼",
                "subject_name": "高中数学",
                "comment_no": 1953,
                "rank": 1953,
                "vip_level": 1,
                "comment_link": "http://beta-m.genshuixue.com/chaochang?tab=comment",
                "student_name": "王陆风",
                "comment_content": "反正我觉得学奥数把孩子的思维打开了，这学期学校的数学我就没有操过任何心，期中考98分，有两个同学100，99分的没有，排下来就是她了，所以我非常感谢沈老师的教学",
                "comment_time": "2106.11.23"
            },
            {
                "home_url": "http://m.genshuixue.com/chaochang",
                "avatar_url": "https://img.genshuixue.com/23520494_5d6kwxyz.jpeg",
                "display_name": "孔仲尼",
                "subject_name": "高中数学",
                "comment_no": 1953,
                "rank": 1953,
                "vip_level": null,
                "comment_link": "http://beta-m.genshuixue.com/chaochang?tab=comment",
                "student_name": "王陆风",
                "comment_content": "反正我觉得学奥数把孩子的思维打开了，这学期学校的数学我就没有操过任何心，期中考98分，有两个同学100，99分的没有，排下来就是她了，所以我非常感谢沈老师的教学",
                "comment_time": "2106.11.23"
            },
            {
                "teacher_link": "http://m.genshuixue.com/chaochang",
                "avatar_url": "https://img.genshuixue.com/23520494_5d6kwxyz.jpeg",
                "display_name": "孔仲尼",
                "subject_name": "高中数学",
                "comment_no": 1953,
                "rank": 1953,
                "vip_level": 2,
                "comment_link": "http://beta-m.genshuixue.com/chaochang?tab=comment",
                "student_name": "王陆风",
                "comment_content": "反正我觉得学奥数把孩子的思维打开了，这学期学校的数学我就没有操过任何心，期中考98分，有两个同学100，99分的没有，排下来就是她了，所以我非常感谢沈老师的教学",
                "comment_time": "2106.11.23"
            },
            {
                "teacher_link": "http://m.genshuixue.com/chaochang",
                "avatar_url": "https://img.genshuixue.com/23520494_5d6kwxyz.jpeg",
                "display_name": "孔仲尼",
                "subject_name": "高中数学",
                "comment_no": 1953,
                "rank": 1953,
                "vip_level": 0,
                "comment_link": "http://beta-m.genshuixue.com/chaochang?tab=comment",
                "student_name": "王陆风",
                "comment_content": "反正我觉得学奥数把孩子的思维打开了，这学期学校的数学我就没有操过任何心，期中考98分，有两个同学100，99分的没有，排下来就是她了，所以我非常感谢沈老师的教学",
                "comment_time": "2106.11.23"
            }
        ],
        "pager": {
            "has_more": true,
            "next_page": 2,
            "current_page": 1,
            "total": 6
        }
    },
    "ts": 1480302247,
    "declare_config": {
        "declareTpl": "v2/resources/page/hotComment/list/index"
    }
}