{
    "code": 0,
    "msg": "succ",
    "tpl_data": {
        "is_vip": false,
        "class_name": [
            {
                "name": "会员精选",
                "url": "/parent/list?type=123",
                "checked": true,
                "type": 0
            },
            {
                "name": "在线课堂",
                "url": "/parent/list?type=124",
                "checked": false,
                "type": 1
            },
            {
                "name": "线下体验",
                "url": "/parent/list?type=125",
                "checked": false,
                "type": 2
            },
            {
                "name": "线下体验",
                "url": "/parent/class?type=126",
                "checked": false,
                "type": 3
            },
            {
                "name": "线下体验",
                "url": "/parent/class?type=127",
                "checked": false,
                "type": 4
            }
        ],
        "banner": [
            {
                "pic_url": "http://test-img.gsxservice.com/0cms/d/file/content/2016/07/57837c2d410c3.png",
                "link": "http://baidu.com",
                "title": "图片标题"
            },
            {
                "pic_url": "http://test-img.gsxservice.com/0cms/d/file/content/2016/07/57837c2d410c3.png",
                "link": "http://baidu.com",
                "title": "图片标题1"
            }
        ],
        "course_list": [
            {
                "img": "https://imgs.genshuixue.com/13235716_tg8aqjom.jpeg",
                "course_name": "少儿吉他培训班",
                "course_type": 8,
                "sign_up_number": 10,
                "start_time": "8月30日20:00",
                "tag": [
                    null,
                    "会员免费",
                    "直播课",
                    "吉他",
                    "3-6岁"
                ],
                "url": "http://baidu.com"
            },
            {
                "img": "https://imgs.genshuixue.com/13235716_tg8aqjom.jpeg",
                "course_name": "少儿吉他培训班2",
                "course_type": 3,
                "sign_up_number": 10,
                "tag": [
                    "会员免费",
                    "视频课",
                    "吉他",
                    "3-6岁"
                ],
                "url": "http://baidu.com"
            },
            {
                "img": "https://imgs.genshuixue.com/13235716_tg8aqjom.jpeg",
                "course_name": "少儿吉他培训班3",
                "course_type": 1,
                "teacher_name": "张三",
                "area": "海淀区",
                "tag": [
                    "会员免费",
                    "一对一",
                    "吉他",
                    "3-6岁"
                ],
                "url": "http://baidu.com"
            },
            {
                "img": "https://imgs.genshuixue.com/13235716_tg8aqjom.jpeg",
                "course_name": "少儿吉他培训班4",
                "course_type": 2,
                "sign_up_number": 10,
                "area": "海淀区",
                "tag": [
                    "会员免费",
                    "线下班课",
                    "吉他",
                    "3-6岁"
                ],
                "url": "http://baidu.com"
            }
        ],
        "pager": {
            "total": 100,
            "has_more": true,
            "current_page": 1
        }
    },
    "ts": 1467271483
}