{
  "code": 0,
  "message": "直播人数排行获取成功",
  "tpl_data": {
    "teacher": {
      "name": "我是高级尼玛尼玛",
      "id": "457528268",
      "city": "北京",
      "student_count": "0",
      "rank": 0
    },
    "items": [
            {
                "name": "ssssssss",
                "id": "87745243811",
                "city": "未知",
                "rank": 1,
                "student_count": "1"
            },
            {
                "name": "我是高级11",
                "id": "457528268`",
                "city": "北京",
                "rank": 0,
                "student_count": "2"
            },
            {
                "name": "果果过过过",
                "id": "415521948111",
                "rank": 0,
                "city": "北京",
                "student_count": "3"
            },
            {
                "name": "韩炀",
                "id": "4161801181",
                "city": "北京",
                "rank": 2,
                "student_count": "3"
            },
            {
                "name": "你",
                "id": "458288108",
                "city": "亳州计划及",
                "rank": 34,
                "student_count": "1111"
            },
            {
                "name": "我是高级",
                "id": "457528268",
                "city": "北京北京",
                "rank": 4444,
                "student_count": "91111"
            },
            {
                "name": "sssssssss",
                "id": "415521948",
                "city": "北京市",
                "rank": 5,
                "student_count": "41111111"
            },
            {
                "name": "韩炀",
                "id": "416180118",
                "city": "北京",
                "student_count": "311"
            },
            {
                "name": "你哈",
                "id": "458288108",
                "city": "亳州",
                "student_count": "11"
            },
            {
                "name": "我是高级",
                "id": "457528268",
                "city": "北京",
                "student_count": "9"
            },
            {
                "name": "果果",
                "id": "415521948",
                "city": "北京",
                "student_count": "14"
            },
            {
                "name": "韩炀",
                "id": "416180118",
                "city": "北京",
                "student_count": "3"
            },
            {
                "name": "你哈",
                "id": "458288108",
                "city": "亳州",
                "student_count": "1"
            },
            {
                "name": "我是高级",
                "id": "457528268",
                "city": "北京",
                "student_count": "9"
            },
            {
                "name": "果果",
                "id": "415521948",
                "city": "北京",
                "student_count": "4"
            },
            {
                "name": "韩炀",
                "id": "416180118",
                "city": "北京",
                "student_count": "3"
            },
            {
                "name": "你哈",
                "id": "458288108",
                "city": "亳州",
                "student_count": "1"
            },
            {
                "name": "我是高级",
                "id": "457528268",
                "city": "北京",
                "student_count": "9"
            },
            {
                "name": "果果",
                "id": "415521948",
                "city": "北京",
                "student_count": "4"
            },
            {
                "name": "韩炀",
                "id": "416180118",
                "city": "北京",
                "student_count": "3"
            },
            {
                "name": "你哈",
                "id": "458288108",
                "city": "亳州",
                "student_count": "1"
            },
            {
                "name": "Jeremy",
                "id": "330368468",
                "city": "北京",
                "student_count": "1"
            }
        ],
    "pager": {
      "has_more": true,
      "next_page": 2,
      "current_page": 2,
      "total": 600
    }
  },
  "render": null
}